23-23_CGCTCATT-CAGGACGT_L003_R1_001.fastq.gz	1,335,493	fragments
23-23_CGCTCATT-CAGGACGT_L004_R1_001.fastq.gz	1,338,580	fragments
120-121_CGCTCATT-GTACTGAC_L008_R1_001.fastq.gz	1,347,018	fragments
120-121_CGCTCATT-GTACTGAC_L007_R1_001.fastq.gz	1,356,074	fragments
116-117_CGCTCATT-GGCTCTGA_L008_R1_001.fastq.gz	1,360,189	fragments
120-121_CGCTCATT-GTACTGAC_L005_R1_001.fastq.gz	1,361,281	fragments
120-121_CGCTCATT-GTACTGAC_L006_R1_001.fastq.gz	1,362,189	fragments
23-23_CGCTCATT-CAGGACGT_L001_R1_001.fastq.gz	1,368,719	fragments
116-117_CGCTCATT-GGCTCTGA_L007_R1_001.fastq.gz	1,369,745	fragments
116-117_CGCTCATT-GGCTCTGA_L005_R1_001.fastq.gz	1,372,243	fragments
116-117_CGCTCATT-GGCTCTGA_L006_R1_001.fastq.gz	1,373,636	fragments
23-23_CGCTCATT-CAGGACGT_L002_R1_001.fastq.gz	1,374,978	fragments
114-115_CGCTCATT-ATAGAGGC_L007_R1_001.fastq.gz	1,480,610	fragments
114-115_CGCTCATT-ATAGAGGC_L008_R1_001.fastq.gz	1,482,099	fragments
114-115_CGCTCATT-ATAGAGGC_L006_R1_001.fastq.gz	1,488,289	fragments
114-115_CGCTCATT-ATAGAGGC_L005_R1_001.fastq.gz	1,489,604	fragments
42-42_GAATTCGT-ATAGAGGC_L001_R1_001.fastq.gz	1,594,131	fragments
42-42_GAATTCGT-ATAGAGGC_L002_R1_001.fastq.gz	1,595,931	fragments
67-67_CGGCTATG-CCTATCCT_L003_R1_001.fastq.gz	1,596,038	fragments
42-42_GAATTCGT-ATAGAGGC_L003_R1_001.fastq.gz	1,596,676	fragments
42-42_GAATTCGT-ATAGAGGC_L004_R1_001.fastq.gz	1,602,240	fragments
67-67_CGGCTATG-CCTATCCT_L001_R1_001.fastq.gz	1,602,783	fragments
67-67_CGGCTATG-CCTATCCT_L002_R1_001.fastq.gz	1,602,928	fragments
67-67_CGGCTATG-CCTATCCT_L004_R1_001.fastq.gz	1,605,247	fragments
24-24_CGCTCATT-GTACTGAC_L003_R1_001.fastq.gz	1,611,221	fragments
24-24_CGCTCATT-GTACTGAC_L004_R1_001.fastq.gz	1,619,668	fragments
57-57_TAATGCGC-TATAGCCT_L003_R1_001.fastq.gz	1,637,425	fragments
57-57_TAATGCGC-TATAGCCT_L001_R1_001.fastq.gz	1,637,509	fragments
57-57_TAATGCGC-TATAGCCT_L002_R1_001.fastq.gz	1,644,269	fragments
57-57_TAATGCGC-TATAGCCT_L004_R1_001.fastq.gz	1,645,781	fragments
24-24_CGCTCATT-GTACTGAC_L001_R1_001.fastq.gz	1,649,591	fragments
24-24_CGCTCATT-GTACTGAC_L002_R1_001.fastq.gz	1,658,209	fragments
19-19_CGCTCATT-CCTATCCT_L003_R1_001.fastq.gz	1,660,112	fragments
19-19_CGCTCATT-CCTATCCT_L004_R1_001.fastq.gz	1,669,147	fragments
17-17_CGCTCATT-TATAGCCT_L003_R1_001.fastq.gz	1,695,233	fragments
17-17_CGCTCATT-TATAGCCT_L004_R1_001.fastq.gz	1,707,689	fragments
19-19_CGCTCATT-CCTATCCT_L001_R1_001.fastq.gz	1,715,227	fragments
19-19_CGCTCATT-CCTATCCT_L002_R1_001.fastq.gz	1,720,316	fragments
21-21_CGCTCATT-AGGCGAAG_L004_R1_001.fastq.gz	1,746,226	fragments
21-21_CGCTCATT-AGGCGAAG_L003_R1_001.fastq.gz	1,746,587	fragments
31-31_GAGATTCC-CAGGACGT_L003_R1_001.fastq.gz	1,747,711	fragments
17-17_CGCTCATT-TATAGCCT_L001_R1_001.fastq.gz	1,748,688	fragments
31-31_GAGATTCC-CAGGACGT_L001_R1_001.fastq.gz	1,751,491	fragments
31-31_GAGATTCC-CAGGACGT_L002_R1_001.fastq.gz	1,752,617	fragments
17-17_CGCTCATT-TATAGCCT_L002_R1_001.fastq.gz	1,754,713	fragments
31-31_GAGATTCC-CAGGACGT_L004_R1_001.fastq.gz	1,760,067	fragments
113-114_CGCTCATT-TATAGCCT_L008_R1_001.fastq.gz	1,766,915	fragments
113-114_CGCTCATT-TATAGCCT_L007_R1_001.fastq.gz	1,770,531	fragments
113-114_CGCTCATT-TATAGCCT_L006_R1_001.fastq.gz	1,777,074	fragments
113-114_CGCTCATT-TATAGCCT_L005_R1_001.fastq.gz	1,777,599	fragments
164-153_CGGCTATG-GGCTCTGA_L007_R1_001.fastq.gz	1,779,109	fragments
164-153_CGGCTATG-GGCTCTGA_L008_R1_001.fastq.gz	1,779,263	fragments
164-153_CGGCTATG-GGCTCTGA_L005_R1_001.fastq.gz	1,781,920	fragments
164-153_CGGCTATG-GGCTCTGA_L006_R1_001.fastq.gz	1,782,118	fragments
21-21_CGCTCATT-AGGCGAAG_L001_R1_001.fastq.gz	1,783,885	fragments
21-21_CGCTCATT-AGGCGAAG_L002_R1_001.fastq.gz	1,792,048	fragments
22-22_CGCTCATT-TAATCTTA_L003_R1_001.fastq.gz	1,844,254	fragments
22-22_CGCTCATT-TAATCTTA_L004_R1_001.fastq.gz	1,849,572	fragments
126-127_GAGATTCC-TAATCTTA_L007_R1_001.fastq.gz	1,852,042	fragments
126-127_GAGATTCC-TAATCTTA_L008_R1_001.fastq.gz	1,855,757	fragments
126-127_GAGATTCC-TAATCTTA_L006_R1_001.fastq.gz	1,856,189	fragments
126-127_GAGATTCC-TAATCTTA_L005_R1_001.fastq.gz	1,856,530	fragments
61-61_TAATGCGC-AGGCGAAG_L003_R1_001.fastq.gz	1,860,414	fragments
118-119_CGCTCATT-TAATCTTA_L008_R1_001.fastq.gz	1,860,507	fragments
61-61_TAATGCGC-AGGCGAAG_L001_R1_001.fastq.gz	1,862,883	fragments
118-119_CGCTCATT-TAATCTTA_L007_R1_001.fastq.gz	1,864,807	fragments
61-61_TAATGCGC-AGGCGAAG_L002_R1_001.fastq.gz	1,865,019	fragments
61-61_TAATGCGC-AGGCGAAG_L004_R1_001.fastq.gz	1,869,023	fragments
66-66_CGGCTATG-ATAGAGGC_L003_R1_001.fastq.gz	1,870,630	fragments
118-119_CGCTCATT-TAATCTTA_L005_R1_001.fastq.gz	1,871,349	fragments
118-119_CGCTCATT-TAATCTTA_L006_R1_001.fastq.gz	1,872,914	fragments
66-66_CGGCTATG-ATAGAGGC_L001_R1_001.fastq.gz	1,878,474	fragments
66-66_CGGCTATG-ATAGAGGC_L002_R1_001.fastq.gz	1,879,584	fragments
66-66_CGGCTATG-ATAGAGGC_L004_R1_001.fastq.gz	1,882,316	fragments
22-22_CGCTCATT-TAATCTTA_L001_R1_001.fastq.gz	1,890,969	fragments
52-52_CTGAAGCT-GGCTCTGA_L003_R1_001.fastq.gz	1,897,338	fragments
22-22_CGCTCATT-TAATCTTA_L002_R1_001.fastq.gz	1,899,079	fragments
52-52_CTGAAGCT-GGCTCTGA_L001_R1_001.fastq.gz	1,902,637	fragments
52-52_CTGAAGCT-GGCTCTGA_L002_R1_001.fastq.gz	1,903,111	fragments
32-32_GAGATTCC-GTACTGAC_L001_R1_001.fastq.gz	1,904,271	fragments
32-32_GAGATTCC-GTACTGAC_L003_R1_001.fastq.gz	1,906,161	fragments
32-32_GAGATTCC-GTACTGAC_L002_R1_001.fastq.gz	1,909,467	fragments
52-52_CTGAAGCT-GGCTCTGA_L004_R1_001.fastq.gz	1,910,106	fragments
18-18_CGCTCATT-ATAGAGGC_L003_R1_001.fastq.gz	1,912,838	fragments
32-32_GAGATTCC-GTACTGAC_L004_R1_001.fastq.gz	1,915,837	fragments
18-18_CGCTCATT-ATAGAGGC_L004_R1_001.fastq.gz	1,921,653	fragments
117-118_CGCTCATT-AGGCGAAG_L008_R1_001.fastq.gz	1,945,477	fragments
125-126_GAGATTCC-AGGCGAAG_L008_R1_001.fastq.gz	1,947,426	fragments
125-126_GAGATTCC-AGGCGAAG_L007_R1_001.fastq.gz	1,950,030	fragments
117-118_CGCTCATT-AGGCGAAG_L007_R1_001.fastq.gz	1,952,002	fragments
125-126_GAGATTCC-AGGCGAAG_L005_R1_001.fastq.gz	1,952,424	fragments
125-126_GAGATTCC-AGGCGAAG_L006_R1_001.fastq.gz	1,953,197	fragments
20-20_CGCTCATT-GGCTCTGA_L003_R1_001.fastq.gz	1,959,899	fragments
117-118_CGCTCATT-AGGCGAAG_L006_R1_001.fastq.gz	1,960,313	fragments
117-118_CGCTCATT-AGGCGAAG_L005_R1_001.fastq.gz	1,962,961	fragments
18-18_CGCTCATT-ATAGAGGC_L001_R1_001.fastq.gz	1,963,512	fragments
20-20_CGCTCATT-GGCTCTGA_L004_R1_001.fastq.gz	1,970,712	fragments
18-18_CGCTCATT-ATAGAGGC_L002_R1_001.fastq.gz	1,974,516	fragments
37-37_ATTCAGAA-AGGCGAAG_L003_R1_001.fastq.gz	2,001,565	fragments
41-41_GAATTCGT-TATAGCCT_L003_R1_001.fastq.gz	2,003,591	fragments
20-20_CGCTCATT-GGCTCTGA_L001_R1_001.fastq.gz	2,006,575	fragments
37-37_ATTCAGAA-AGGCGAAG_L001_R1_001.fastq.gz	2,006,702	fragments
127-128_GAGATTCC-CAGGACGT_L008_R1_001.fastq.gz	2,007,402	fragments
127-128_GAGATTCC-CAGGACGT_L007_R1_001.fastq.gz	2,007,439	fragments
33-33_ATTCAGAA-TATAGCCT_L003_R1_001.fastq.gz	2,007,725	fragments
41-41_GAATTCGT-TATAGCCT_L001_R1_001.fastq.gz	2,008,511	fragments
37-37_ATTCAGAA-AGGCGAAG_L002_R1_001.fastq.gz	2,009,257	fragments
127-128_GAGATTCC-CAGGACGT_L005_R1_001.fastq.gz	2,009,268	fragments
41-41_GAATTCGT-TATAGCCT_L002_R1_001.fastq.gz	2,011,423	fragments
127-128_GAGATTCC-CAGGACGT_L006_R1_001.fastq.gz	2,013,189	fragments
33-33_ATTCAGAA-TATAGCCT_L002_R1_001.fastq.gz	2,015,619	fragments
37-37_ATTCAGAA-AGGCGAAG_L004_R1_001.fastq.gz	2,016,013	fragments
33-33_ATTCAGAA-TATAGCCT_L001_R1_001.fastq.gz	2,016,779	fragments
20-20_CGCTCATT-GGCTCTGA_L002_R1_001.fastq.gz	2,016,950	fragments
63-63_TAATGCGC-CAGGACGT_L003_R1_001.fastq.gz	2,017,420	fragments
41-41_GAATTCGT-TATAGCCT_L004_R1_001.fastq.gz	2,017,959	fragments
63-63_TAATGCGC-CAGGACGT_L002_R1_001.fastq.gz	2,019,475	fragments
1-1_ATTACTCG-TATAGCCT_L003_R1_001.fastq.gz	2,020,258	fragments
63-63_TAATGCGC-CAGGACGT_L001_R1_001.fastq.gz	2,020,910	fragments
33-33_ATTCAGAA-TATAGCCT_L004_R1_001.fastq.gz	2,021,694	fragments
63-63_TAATGCGC-CAGGACGT_L004_R1_001.fastq.gz	2,025,059	fragments
1-1_ATTACTCG-TATAGCCT_L004_R1_001.fastq.gz	2,026,534	fragments
1-1_ATTACTCG-TATAGCCT_L002_R1_001.fastq.gz	2,026,787	fragments
1-1_ATTACTCG-TATAGCCT_L001_R1_001.fastq.gz	2,027,987	fragments
28-28_GAGATTCC-GGCTCTGA_L003_R1_001.fastq.gz	2,035,857	fragments
30-30_GAGATTCC-TAATCTTA_L003_R1_001.fastq.gz	2,038,899	fragments
28-28_GAGATTCC-GGCTCTGA_L001_R1_001.fastq.gz	2,045,240	fragments
30-30_GAGATTCC-TAATCTTA_L002_R1_001.fastq.gz	2,048,075	fragments
28-28_GAGATTCC-GGCTCTGA_L002_R1_001.fastq.gz	2,049,193	fragments
30-30_GAGATTCC-TAATCTTA_L001_R1_001.fastq.gz	2,049,276	fragments
28-28_GAGATTCC-GGCTCTGA_L004_R1_001.fastq.gz	2,050,978	fragments
30-30_GAGATTCC-TAATCTTA_L004_R1_001.fastq.gz	2,052,302	fragments
40-40_ATTCAGAA-GTACTGAC_L003_R1_001.fastq.gz	2,054,793	fragments
40-40_ATTCAGAA-GTACTGAC_L002_R1_001.fastq.gz	2,057,117	fragments
40-40_ATTCAGAA-GTACTGAC_L001_R1_001.fastq.gz	2,057,533	fragments
40-40_ATTCAGAA-GTACTGAC_L004_R1_001.fastq.gz	2,064,431	fragments
74-74_TCCGCGAA-ATAGAGGC_L003_R1_001.fastq.gz	2,087,612	fragments
94-94_AGCGATAG-TAATCTTA_L003_R1_001.fastq.gz	2,089,492	fragments
74-74_TCCGCGAA-ATAGAGGC_L002_R1_001.fastq.gz	2,094,867	fragments
94-94_AGCGATAG-TAATCTTA_L002_R1_001.fastq.gz	2,095,100	fragments
96-97_AGCGATAG-GTACTGAC_L003_R1_001.fastq.gz	2,096,440	fragments
74-74_TCCGCGAA-ATAGAGGC_L001_R1_001.fastq.gz	2,097,733	fragments
96-97_AGCGATAG-GTACTGAC_L002_R1_001.fastq.gz	2,100,094	fragments
94-94_AGCGATAG-TAATCTTA_L001_R1_001.fastq.gz	2,100,813	fragments
94-94_AGCGATAG-TAATCTTA_L004_R1_001.fastq.gz	2,102,194	fragments
96-97_AGCGATAG-GTACTGAC_L001_R1_001.fastq.gz	2,102,202	fragments
74-74_TCCGCGAA-ATAGAGGC_L004_R1_001.fastq.gz	2,102,823	fragments
96-97_AGCGATAG-GTACTGAC_L004_R1_001.fastq.gz	2,106,395	fragments
46-46_GAATTCGT-TAATCTTA_L003_R1_001.fastq.gz	2,137,426	fragments
77-77_TCCGCGAA-AGGCGAAG_L003_R1_001.fastq.gz	2,143,990	fragments
46-46_GAATTCGT-TAATCTTA_L002_R1_001.fastq.gz	2,144,532	fragments
119-120_CGCTCATT-CAGGACGT_L008_R1_001.fastq.gz	2,146,474	fragments
46-46_GAATTCGT-TAATCTTA_L004_R1_001.fastq.gz	2,147,499	fragments
46-46_GAATTCGT-TAATCTTA_L001_R1_001.fastq.gz	2,149,514	fragments
77-77_TCCGCGAA-AGGCGAAG_L002_R1_001.fastq.gz	2,152,810	fragments
119-120_CGCTCATT-CAGGACGT_L007_R1_001.fastq.gz	2,155,057	fragments
77-77_TCCGCGAA-AGGCGAAG_L004_R1_001.fastq.gz	2,155,470	fragments
77-77_TCCGCGAA-AGGCGAAG_L001_R1_001.fastq.gz	2,155,496	fragments
11-11_TCCGGAGA-CCTATCCT_L003_R1_001.fastq.gz	2,158,601	fragments
90-90_AGCGATAG-ATAGAGGC_L003_R1_001.fastq.gz	2,159,316	fragments
90-90_AGCGATAG-ATAGAGGC_L002_R1_001.fastq.gz	2,161,600	fragments
90-90_AGCGATAG-ATAGAGGC_L001_R1_001.fastq.gz	2,161,776	fragments
11-11_TCCGGAGA-CCTATCCT_L002_R1_001.fastq.gz	2,163,477	fragments
119-120_CGCTCATT-CAGGACGT_L006_R1_001.fastq.gz	2,163,759	fragments
119-120_CGCTCATT-CAGGACGT_L005_R1_001.fastq.gz	2,165,137	fragments
14-14_TCCGGAGA-TAATCTTA_L003_R1_001.fastq.gz	2,167,038	fragments
11-11_TCCGGAGA-CCTATCCT_L001_R1_001.fastq.gz	2,168,954	fragments
90-90_AGCGATAG-ATAGAGGC_L004_R1_001.fastq.gz	2,169,736	fragments
11-11_TCCGGAGA-CCTATCCT_L004_R1_001.fastq.gz	2,171,245	fragments
34-34_ATTCAGAA-ATAGAGGC_L003_R1_001.fastq.gz	2,174,779	fragments
165-154_CGGCTATG-AGGCGAAG_L007_R1_001.fastq.gz	2,175,042	fragments
14-14_TCCGGAGA-TAATCTTA_L002_R1_001.fastq.gz	2,175,318	fragments
14-14_TCCGGAGA-TAATCTTA_L001_R1_001.fastq.gz	2,175,791	fragments
165-154_CGGCTATG-AGGCGAAG_L008_R1_001.fastq.gz	2,176,581	fragments
76-76_TCCGCGAA-GGCTCTGA_L003_R1_001.fastq.gz	2,177,163	fragments
165-154_CGGCTATG-AGGCGAAG_L006_R1_001.fastq.gz	2,179,357	fragments
14-14_TCCGGAGA-TAATCTTA_L004_R1_001.fastq.gz	2,179,784	fragments
76-76_TCCGCGAA-GGCTCTGA_L002_R1_001.fastq.gz	2,182,383	fragments
165-154_CGGCTATG-AGGCGAAG_L005_R1_001.fastq.gz	2,184,316	fragments
76-76_TCCGCGAA-GGCTCTGA_L001_R1_001.fastq.gz	2,184,980	fragments
34-34_ATTCAGAA-ATAGAGGC_L001_R1_001.fastq.gz	2,185,934	fragments
34-34_ATTCAGAA-ATAGAGGC_L002_R1_001.fastq.gz	2,186,941	fragments
76-76_TCCGCGAA-GGCTCTGA_L004_R1_001.fastq.gz	2,188,755	fragments
34-34_ATTCAGAA-ATAGAGGC_L004_R1_001.fastq.gz	2,191,260	fragments
50-50_CTGAAGCT-ATAGAGGC_L003_R1_001.fastq.gz	2,199,569	fragments
50-50_CTGAAGCT-ATAGAGGC_L002_R1_001.fastq.gz	2,205,781	fragments
50-50_CTGAAGCT-ATAGAGGC_L001_R1_001.fastq.gz	2,207,881	fragments
82-82_TCTCGCGC-ATAGAGGC_L003_R1_001.fastq.gz	2,209,569	fragments
3-3_ATTACTCG-CCTATCCT_L003_R1_001.fastq.gz	2,210,425	fragments
50-50_CTGAAGCT-ATAGAGGC_L004_R1_001.fastq.gz	2,210,744	fragments
44-44_GAATTCGT-GGCTCTGA_L003_R1_001.fastq.gz	2,211,949	fragments
91-91_AGCGATAG-CCTATCCT_L003_R1_001.fastq.gz	2,212,818	fragments
80-80_TCCGCGAA-GTACTGAC_L003_R1_001.fastq.gz	2,213,182	fragments
137-138_GAATTCGT-TATAGCCT_L008_R1_001.fastq.gz	2,213,795	fragments
137-138_GAATTCGT-TATAGCCT_L007_R1_001.fastq.gz	2,213,820	fragments
3-3_ATTACTCG-CCTATCCT_L001_R1_001.fastq.gz	2,214,440	fragments
93-93_AGCGATAG-AGGCGAAG_L003_R1_001.fastq.gz	2,215,014	fragments
3-3_ATTACTCG-CCTATCCT_L002_R1_001.fastq.gz	2,216,458	fragments
92-92_AGCGATAG-GGCTCTGA_L003_R1_001.fastq.gz	2,216,575	fragments
3-3_ATTACTCG-CCTATCCT_L004_R1_001.fastq.gz	2,216,997	fragments
91-91_AGCGATAG-CCTATCCT_L001_R1_001.fastq.gz	2,217,279	fragments
82-82_TCTCGCGC-ATAGAGGC_L001_R1_001.fastq.gz	2,217,574	fragments
137-138_GAATTCGT-TATAGCCT_L006_R1_001.fastq.gz	2,219,791	fragments
93-93_AGCGATAG-AGGCGAAG_L002_R1_001.fastq.gz	2,219,793	fragments
82-82_TCTCGCGC-ATAGAGGC_L002_R1_001.fastq.gz	2,219,821	fragments
80-80_TCCGCGAA-GTACTGAC_L001_R1_001.fastq.gz	2,220,088	fragments
82-82_TCTCGCGC-ATAGAGGC_L004_R1_001.fastq.gz	2,220,459	fragments
137-138_GAATTCGT-TATAGCCT_L005_R1_001.fastq.gz	2,221,203	fragments
80-80_TCCGCGAA-GTACTGAC_L002_R1_001.fastq.gz	2,221,293	fragments
93-93_AGCGATAG-AGGCGAAG_L001_R1_001.fastq.gz	2,221,345	fragments
91-91_AGCGATAG-CCTATCCT_L002_R1_001.fastq.gz	2,222,025	fragments
44-44_GAATTCGT-GGCTCTGA_L002_R1_001.fastq.gz	2,222,063	fragments
93-93_AGCGATAG-AGGCGAAG_L004_R1_001.fastq.gz	2,222,370	fragments
92-92_AGCGATAG-GGCTCTGA_L001_R1_001.fastq.gz	2,222,797	fragments
80-80_TCCGCGAA-GTACTGAC_L004_R1_001.fastq.gz	2,223,049	fragments
91-91_AGCGATAG-CCTATCCT_L004_R1_001.fastq.gz	2,223,352	fragments
92-92_AGCGATAG-GGCTCTGA_L002_R1_001.fastq.gz	2,223,652	fragments
44-44_GAATTCGT-GGCTCTGA_L001_R1_001.fastq.gz	2,223,703	fragments
44-44_GAATTCGT-GGCTCTGA_L004_R1_001.fastq.gz	2,224,169	fragments
92-92_AGCGATAG-GGCTCTGA_L004_R1_001.fastq.gz	2,226,904	fragments
36-36_ATTCAGAA-GGCTCTGA_L003_R1_001.fastq.gz	2,230,829	fragments
53-53_CTGAAGCT-AGGCGAAG_L003_R1_001.fastq.gz	2,235,515	fragments
36-36_ATTCAGAA-GGCTCTGA_L002_R1_001.fastq.gz	2,236,854	fragments
36-36_ATTCAGAA-GGCTCTGA_L001_R1_001.fastq.gz	2,239,293	fragments
53-53_CTGAAGCT-AGGCGAAG_L001_R1_001.fastq.gz	2,241,045	fragments
53-53_CTGAAGCT-AGGCGAAG_L002_R1_001.fastq.gz	2,241,501	fragments
81-81_TCTCGCGC-TATAGCCT_L003_R1_001.fastq.gz	2,241,780	fragments
36-36_ATTCAGAA-GGCTCTGA_L004_R1_001.fastq.gz	2,241,987	fragments
53-53_CTGAAGCT-AGGCGAAG_L004_R1_001.fastq.gz	2,247,734	fragments
81-81_TCTCGCGC-TATAGCCT_L002_R1_001.fastq.gz	2,251,254	fragments
81-81_TCTCGCGC-TATAGCCT_L001_R1_001.fastq.gz	2,253,931	fragments
54-54_CTGAAGCT-TAATCTTA_L003_R1_001.fastq.gz	2,255,694	fragments
81-81_TCTCGCGC-TATAGCCT_L004_R1_001.fastq.gz	2,256,466	fragments
29-29_GAGATTCC-AGGCGAAG_L003_R1_001.fastq.gz	2,257,470	fragments
54-54_CTGAAGCT-TAATCTTA_L002_R1_001.fastq.gz	2,259,467	fragments
78-78_TCCGCGAA-TAATCTTA_L003_R1_001.fastq.gz	2,259,965	fragments
54-54_CTGAAGCT-TAATCTTA_L001_R1_001.fastq.gz	2,264,896	fragments
54-54_CTGAAGCT-TAATCTTA_L004_R1_001.fastq.gz	2,264,985	fragments
29-29_GAGATTCC-AGGCGAAG_L002_R1_001.fastq.gz	2,265,489	fragments
71-71_CGGCTATG-CAGGACGT_L003_R1_001.fastq.gz	2,268,836	fragments
49-49_CTGAAGCT-TATAGCCT_L003_R1_001.fastq.gz	2,269,457	fragments
29-29_GAGATTCC-AGGCGAAG_L004_R1_001.fastq.gz	2,269,740	fragments
29-29_GAGATTCC-AGGCGAAG_L001_R1_001.fastq.gz	2,271,019	fragments
78-78_TCCGCGAA-TAATCTTA_L002_R1_001.fastq.gz	2,271,411	fragments
78-78_TCCGCGAA-TAATCTTA_L001_R1_001.fastq.gz	2,272,339	fragments
71-71_CGGCTATG-CAGGACGT_L002_R1_001.fastq.gz	2,272,943	fragments
85-85_TCTCGCGC-AGGCGAAG_L003_R1_001.fastq.gz	2,273,235	fragments
78-78_TCCGCGAA-TAATCTTA_L004_R1_001.fastq.gz	2,274,034	fragments
161-150_CGGCTATG-TATAGCCT_L007_R1_001.fastq.gz	2,274,980	fragments
71-71_CGGCTATG-CAGGACGT_L001_R1_001.fastq.gz	2,275,496	fragments
85-85_TCTCGCGC-AGGCGAAG_L002_R1_001.fastq.gz	2,275,694	fragments
161-150_CGGCTATG-TATAGCCT_L008_R1_001.fastq.gz	2,276,853	fragments
6-6_ATTACTCG-TAATCTTA_L003_R1_001.fastq.gz	2,277,996	fragments
115-116_CGCTCATT-CCTATCCT_L008_R1_001.fastq.gz	2,278,202	fragments
49-49_CTGAAGCT-TATAGCCT_L002_R1_001.fastq.gz	2,279,135	fragments
161-150_CGGCTATG-TATAGCCT_L006_R1_001.fastq.gz	2,279,677	fragments
71-71_CGGCTATG-CAGGACGT_L004_R1_001.fastq.gz	2,280,037	fragments
49-49_CTGAAGCT-TATAGCCT_L004_R1_001.fastq.gz	2,282,295	fragments
86-86_TCTCGCGC-TAATCTTA_L003_R1_001.fastq.gz	2,282,466	fragments
49-49_CTGAAGCT-TATAGCCT_L001_R1_001.fastq.gz	2,283,080	fragments
85-85_TCTCGCGC-AGGCGAAG_L001_R1_001.fastq.gz	2,283,536	fragments
85-85_TCTCGCGC-AGGCGAAG_L004_R1_001.fastq.gz	2,283,596	fragments
6-6_ATTACTCG-TAATCTTA_L002_R1_001.fastq.gz	2,283,800	fragments
161-150_CGGCTATG-TATAGCCT_L005_R1_001.fastq.gz	2,287,683	fragments
62-62_TAATGCGC-TAATCTTA_L003_R1_001.fastq.gz	2,289,419	fragments
6-6_ATTACTCG-TAATCTTA_L001_R1_001.fastq.gz	2,291,874	fragments
115-116_CGCTCATT-CCTATCCT_L007_R1_001.fastq.gz	2,292,379	fragments
6-6_ATTACTCG-TAATCTTA_L004_R1_001.fastq.gz	2,292,393	fragments
86-86_TCTCGCGC-TAATCTTA_L002_R1_001.fastq.gz	2,293,138	fragments
86-86_TCTCGCGC-TAATCTTA_L004_R1_001.fastq.gz	2,293,463	fragments
86-86_TCTCGCGC-TAATCTTA_L001_R1_001.fastq.gz	2,293,695	fragments
89-89_AGCGATAG-TATAGCCT_L003_R1_001.fastq.gz	2,293,850	fragments
115-116_CGCTCATT-CCTATCCT_L006_R1_001.fastq.gz	2,295,133	fragments
95-95_AGCGATAG-CAGGACGT_L003_R1_001.fastq.gz	2,297,925	fragments
55-55_CTGAAGCT-CAGGACGT_L003_R1_001.fastq.gz	2,298,011	fragments
27-27_GAGATTCC-CCTATCCT_L003_R1_001.fastq.gz	2,298,387	fragments
115-116_CGCTCATT-CCTATCCT_L005_R1_001.fastq.gz	2,298,899	fragments
62-62_TAATGCGC-TAATCTTA_L002_R1_001.fastq.gz	2,299,061	fragments
87-87_TCTCGCGC-CAGGACGT_L003_R1_001.fastq.gz	2,301,612	fragments
89-89_AGCGATAG-TATAGCCT_L002_R1_001.fastq.gz	2,302,224	fragments
95-95_AGCGATAG-CAGGACGT_L002_R1_001.fastq.gz	2,302,670	fragments
62-62_TAATGCGC-TAATCTTA_L001_R1_001.fastq.gz	2,303,568	fragments
95-95_AGCGATAG-CAGGACGT_L001_R1_001.fastq.gz	2,303,720	fragments
89-89_AGCGATAG-TATAGCCT_L001_R1_001.fastq.gz	2,303,793	fragments
62-62_TAATGCGC-TAATCTTA_L004_R1_001.fastq.gz	2,304,047	fragments
55-55_CTGAAGCT-CAGGACGT_L002_R1_001.fastq.gz	2,306,844	fragments
95-95_AGCGATAG-CAGGACGT_L004_R1_001.fastq.gz	2,308,422	fragments
89-89_AGCGATAG-TATAGCCT_L004_R1_001.fastq.gz	2,308,841	fragments
55-55_CTGAAGCT-CAGGACGT_L004_R1_001.fastq.gz	2,309,129	fragments
27-27_GAGATTCC-CCTATCCT_L002_R1_001.fastq.gz	2,310,273	fragments
55-55_CTGAAGCT-CAGGACGT_L001_R1_001.fastq.gz	2,311,194	fragments
10-10_TCCGGAGA-ATAGAGGC_L003_R1_001.fastq.gz	2,311,981	fragments
87-87_TCTCGCGC-CAGGACGT_L001_R1_001.fastq.gz	2,312,471	fragments
87-87_TCTCGCGC-CAGGACGT_L002_R1_001.fastq.gz	2,312,930	fragments
27-27_GAGATTCC-CCTATCCT_L001_R1_001.fastq.gz	2,313,003	fragments
87-87_TCTCGCGC-CAGGACGT_L004_R1_001.fastq.gz	2,315,428	fragments
27-27_GAGATTCC-CCTATCCT_L004_R1_001.fastq.gz	2,315,590	fragments
38-38_ATTCAGAA-TAATCTTA_L003_R1_001.fastq.gz	2,316,561	fragments
38-38_ATTCAGAA-TAATCTTA_L002_R1_001.fastq.gz	2,323,576	fragments
10-10_TCCGGAGA-ATAGAGGC_L001_R1_001.fastq.gz	2,324,650	fragments
10-10_TCCGGAGA-ATAGAGGC_L002_R1_001.fastq.gz	2,324,785	fragments
10-10_TCCGGAGA-ATAGAGGC_L004_R1_001.fastq.gz	2,329,777	fragments
38-38_ATTCAGAA-TAATCTTA_L001_R1_001.fastq.gz	2,331,484	fragments
38-38_ATTCAGAA-TAATCTTA_L004_R1_001.fastq.gz	2,332,545	fragments
2-2_ATTACTCG-ATAGAGGC_L003_R1_001.fastq.gz	2,339,602	fragments
8-8_ATTACTCG-GTACTGAC_L003_R1_001.fastq.gz	2,341,778	fragments
88-88_TCTCGCGC-GTACTGAC_L003_R1_001.fastq.gz	2,341,802	fragments
2-2_ATTACTCG-ATAGAGGC_L002_R1_001.fastq.gz	2,343,948	fragments
2-2_ATTACTCG-ATAGAGGC_L001_R1_001.fastq.gz	2,344,755	fragments
73-73_TCCGCGAA-TATAGCCT_L003_R1_001.fastq.gz	2,346,369	fragments
8-8_ATTACTCG-GTACTGAC_L001_R1_001.fastq.gz	2,347,397	fragments
84-84_TCTCGCGC-GGCTCTGA_L003_R1_001.fastq.gz	2,348,060	fragments
8-8_ATTACTCG-GTACTGAC_L002_R1_001.fastq.gz	2,349,685	fragments
88-88_TCTCGCGC-GTACTGAC_L002_R1_001.fastq.gz	2,350,028	fragments
73-73_TCCGCGAA-TATAGCCT_L002_R1_001.fastq.gz	2,351,267	fragments
88-88_TCTCGCGC-GTACTGAC_L001_R1_001.fastq.gz	2,351,720	fragments
2-2_ATTACTCG-ATAGAGGC_L004_R1_001.fastq.gz	2,352,526	fragments
84-84_TCTCGCGC-GGCTCTGA_L002_R1_001.fastq.gz	2,352,709	fragments
8-8_ATTACTCG-GTACTGAC_L004_R1_001.fastq.gz	2,354,743	fragments
73-73_TCCGCGAA-TATAGCCT_L001_R1_001.fastq.gz	2,355,261	fragments
84-84_TCTCGCGC-GGCTCTGA_L001_R1_001.fastq.gz	2,359,639	fragments
88-88_TCTCGCGC-GTACTGAC_L004_R1_001.fastq.gz	2,360,081	fragments
73-73_TCCGCGAA-TATAGCCT_L004_R1_001.fastq.gz	2,360,357	fragments
84-84_TCTCGCGC-GGCTCTGA_L004_R1_001.fastq.gz	2,362,058	fragments
163-152_CGGCTATG-CCTATCCT_L008_R1_001.fastq.gz	2,378,010	fragments
163-152_CGGCTATG-CCTATCCT_L007_R1_001.fastq.gz	2,379,401	fragments
163-152_CGGCTATG-CCTATCCT_L006_R1_001.fastq.gz	2,381,724	fragments
163-152_CGGCTATG-CCTATCCT_L005_R1_001.fastq.gz	2,383,844	fragments
70-70_CGGCTATG-TAATCTTA_L003_R1_001.fastq.gz	2,386,139	fragments
13-13_TCCGGAGA-AGGCGAAG_L003_R1_001.fastq.gz	2,387,323	fragments
75-75_TCCGCGAA-CCTATCCT_L003_R1_001.fastq.gz	2,394,143	fragments
70-70_CGGCTATG-TAATCTTA_L004_R1_001.fastq.gz	2,394,342	fragments
13-13_TCCGGAGA-AGGCGAAG_L002_R1_001.fastq.gz	2,394,554	fragments
70-70_CGGCTATG-TAATCTTA_L001_R1_001.fastq.gz	2,395,953	fragments
70-70_CGGCTATG-TAATCTTA_L002_R1_001.fastq.gz	2,396,055	fragments
16-16_TCCGGAGA-GTACTGAC_L003_R1_001.fastq.gz	2,398,606	fragments
59-59_TAATGCGC-CCTATCCT_L003_R1_001.fastq.gz	2,399,435	fragments
75-75_TCCGCGAA-CCTATCCT_L002_R1_001.fastq.gz	2,399,571	fragments
180-D50-E3-LV_TCTCGCGC-GGCTCTGA_L008_R1_001.fastq.gz	2,400,037	fragments
13-13_TCCGGAGA-AGGCGAAG_L001_R1_001.fastq.gz	2,400,276	fragments
7-7_ATTACTCG-CAGGACGT_L003_R1_001.fastq.gz	2,400,856	fragments
75-75_TCCGCGAA-CCTATCCT_L001_R1_001.fastq.gz	2,401,914	fragments
26-26_GAGATTCC-ATAGAGGC_L003_R1_001.fastq.gz	2,402,127	fragments
16-16_TCCGGAGA-GTACTGAC_L002_R1_001.fastq.gz	2,402,929	fragments
180-D50-E3-LV_TCTCGCGC-GGCTCTGA_L007_R1_001.fastq.gz	2,403,241	fragments
16-16_TCCGGAGA-GTACTGAC_L001_R1_001.fastq.gz	2,404,229	fragments
13-13_TCCGGAGA-AGGCGAAG_L004_R1_001.fastq.gz	2,404,501	fragments
16-16_TCCGGAGA-GTACTGAC_L004_R1_001.fastq.gz	2,405,229	fragments
7-7_ATTACTCG-CAGGACGT_L002_R1_001.fastq.gz	2,406,225	fragments
180-D50-E3-LV_TCTCGCGC-GGCTCTGA_L006_R1_001.fastq.gz	2,406,568	fragments
75-75_TCCGCGAA-CCTATCCT_L004_R1_001.fastq.gz	2,406,687	fragments
59-59_TAATGCGC-CCTATCCT_L002_R1_001.fastq.gz	2,408,517	fragments
7-7_ATTACTCG-CAGGACGT_L001_R1_001.fastq.gz	2,409,308	fragments
59-59_TAATGCGC-CCTATCCT_L001_R1_001.fastq.gz	2,411,389	fragments
7-7_ATTACTCG-CAGGACGT_L004_R1_001.fastq.gz	2,412,990	fragments
60-60_TAATGCGC-GGCTCTGA_L003_R1_001.fastq.gz	2,414,742	fragments
26-26_GAGATTCC-ATAGAGGC_L002_R1_001.fastq.gz	2,415,000	fragments
59-59_TAATGCGC-CCTATCCT_L004_R1_001.fastq.gz	2,415,021	fragments
26-26_GAGATTCC-ATAGAGGC_L001_R1_001.fastq.gz	2,416,070	fragments
60-60_TAATGCGC-GGCTCTGA_L001_R1_001.fastq.gz	2,416,294	fragments
180-D50-E3-LV_TCTCGCGC-GGCTCTGA_L005_R1_001.fastq.gz	2,416,410	fragments
25-25_GAGATTCC-TATAGCCT_L003_R1_001.fastq.gz	2,417,872	fragments
60-60_TAATGCGC-GGCTCTGA_L002_R1_001.fastq.gz	2,417,897	fragments
26-26_GAGATTCC-ATAGAGGC_L004_R1_001.fastq.gz	2,417,955	fragments
79-79_TCCGCGAA-CAGGACGT_L003_R1_001.fastq.gz	2,421,346	fragments
60-60_TAATGCGC-GGCTCTGA_L004_R1_001.fastq.gz	2,423,361	fragments
9-9_TCCGGAGA-TATAGCCT_L003_R1_001.fastq.gz	2,425,436	fragments
79-79_TCCGCGAA-CAGGACGT_L002_R1_001.fastq.gz	2,425,506	fragments
25-25_GAGATTCC-TATAGCCT_L002_R1_001.fastq.gz	2,429,101	fragments
9-9_TCCGGAGA-TATAGCCT_L002_R1_001.fastq.gz	2,430,504	fragments
108-109_TCCGGAGA-GGCTCTGA_L007_R1_001.fastq.gz	2,431,095	fragments
25-25_GAGATTCC-TATAGCCT_L001_R1_001.fastq.gz	2,431,196	fragments
79-79_TCCGCGAA-CAGGACGT_L004_R1_001.fastq.gz	2,431,767	fragments
79-79_TCCGCGAA-CAGGACGT_L001_R1_001.fastq.gz	2,432,156	fragments
25-25_GAGATTCC-TATAGCCT_L004_R1_001.fastq.gz	2,434,057	fragments
108-109_TCCGGAGA-GGCTCTGA_L008_R1_001.fastq.gz	2,434,455	fragments
72-72_CGGCTATG-GTACTGAC_L003_R1_001.fastq.gz	2,436,206	fragments
9-9_TCCGGAGA-TATAGCCT_L001_R1_001.fastq.gz	2,436,220	fragments
51-51_CTGAAGCT-CCTATCCT_L003_R1_001.fastq.gz	2,436,286	fragments
64-64_TAATGCGC-GTACTGAC_L003_R1_001.fastq.gz	2,436,298	fragments
9-9_TCCGGAGA-TATAGCCT_L004_R1_001.fastq.gz	2,438,301	fragments
108-109_TCCGGAGA-GGCTCTGA_L005_R1_001.fastq.gz	2,440,112	fragments
64-64_TAATGCGC-GTACTGAC_L001_R1_001.fastq.gz	2,440,772	fragments
108-109_TCCGGAGA-GGCTCTGA_L006_R1_001.fastq.gz	2,440,880	fragments
39-39_ATTCAGAA-CAGGACGT_L003_R1_001.fastq.gz	2,440,971	fragments
64-64_TAATGCGC-GTACTGAC_L002_R1_001.fastq.gz	2,441,165	fragments
72-72_CGGCTATG-GTACTGAC_L001_R1_001.fastq.gz	2,441,756	fragments
72-72_CGGCTATG-GTACTGAC_L002_R1_001.fastq.gz	2,442,283	fragments
72-72_CGGCTATG-GTACTGAC_L004_R1_001.fastq.gz	2,443,686	fragments
51-51_CTGAAGCT-CCTATCCT_L002_R1_001.fastq.gz	2,445,649	fragments
64-64_TAATGCGC-GTACTGAC_L004_R1_001.fastq.gz	2,447,303	fragments
51-51_CTGAAGCT-CCTATCCT_L004_R1_001.fastq.gz	2,448,378	fragments
4-4_ATTACTCG-GGCTCTGA_L003_R1_001.fastq.gz	2,448,903	fragments
39-39_ATTCAGAA-CAGGACGT_L002_R1_001.fastq.gz	2,451,252	fragments
51-51_CTGAAGCT-CCTATCCT_L001_R1_001.fastq.gz	2,452,612	fragments
122-123_GAGATTCC-ATAGAGGC_L008_R1_001.fastq.gz	2,452,941	fragments
39-39_ATTCAGAA-CAGGACGT_L001_R1_001.fastq.gz	2,454,241	fragments
39-39_ATTCAGAA-CAGGACGT_L004_R1_001.fastq.gz	2,454,672	fragments
4-4_ATTACTCG-GGCTCTGA_L002_R1_001.fastq.gz	2,454,796	fragments
4-4_ATTACTCG-GGCTCTGA_L001_R1_001.fastq.gz	2,455,086	fragments
135-136_ATTCAGAA-CAGGACGT_L007_R1_001.fastq.gz	2,455,366	fragments
122-123_GAGATTCC-ATAGAGGC_L007_R1_001.fastq.gz	2,456,852	fragments
135-136_ATTCAGAA-CAGGACGT_L008_R1_001.fastq.gz	2,461,411	fragments
4-4_ATTACTCG-GGCTCTGA_L004_R1_001.fastq.gz	2,461,422	fragments
122-123_GAGATTCC-ATAGAGGC_L005_R1_001.fastq.gz	2,461,847	fragments
122-123_GAGATTCC-ATAGAGGC_L006_R1_001.fastq.gz	2,463,008	fragments
135-136_ATTCAGAA-CAGGACGT_L006_R1_001.fastq.gz	2,464,848	fragments
135-136_ATTCAGAA-CAGGACGT_L005_R1_001.fastq.gz	2,465,372	fragments
172-161_TCCGCGAA-GGCTCTGA_L008_R1_001.fastq.gz	2,482,722	fragments
172-161_TCCGCGAA-GGCTCTGA_L007_R1_001.fastq.gz	2,483,963	fragments
12-12_TCCGGAGA-GGCTCTGA_L003_R1_001.fastq.gz	2,488,404	fragments
172-161_TCCGCGAA-GGCTCTGA_L006_R1_001.fastq.gz	2,489,135	fragments
172-161_TCCGCGAA-GGCTCTGA_L005_R1_001.fastq.gz	2,492,375	fragments
12-12_TCCGGAGA-GGCTCTGA_L002_R1_001.fastq.gz	2,494,482	fragments
15-15_TCCGGAGA-CAGGACGT_L003_R1_001.fastq.gz	2,495,111	fragments
12-12_TCCGGAGA-GGCTCTGA_L001_R1_001.fastq.gz	2,497,677	fragments
12-12_TCCGGAGA-GGCTCTGA_L004_R1_001.fastq.gz	2,500,707	fragments
15-15_TCCGGAGA-CAGGACGT_L002_R1_001.fastq.gz	2,501,283	fragments
69-69_CGGCTATG-AGGCGAAG_L003_R1_001.fastq.gz	2,501,839	fragments
15-15_TCCGGAGA-CAGGACGT_L001_R1_001.fastq.gz	2,503,512	fragments
15-15_TCCGGAGA-CAGGACGT_L004_R1_001.fastq.gz	2,506,929	fragments
65-65_CGGCTATG-TATAGCCT_L003_R1_001.fastq.gz	2,507,987	fragments
69-69_CGGCTATG-AGGCGAAG_L002_R1_001.fastq.gz	2,508,109	fragments
69-69_CGGCTATG-AGGCGAAG_L004_R1_001.fastq.gz	2,508,132	fragments
69-69_CGGCTATG-AGGCGAAG_L001_R1_001.fastq.gz	2,508,454	fragments
123-124_GAGATTCC-CCTATCCT_L008_R1_001.fastq.gz	2,511,151	fragments
123-124_GAGATTCC-CCTATCCT_L007_R1_001.fastq.gz	2,512,273	fragments
56-56_CTGAAGCT-GTACTGAC_L003_R1_001.fastq.gz	2,513,537	fragments
56-56_CTGAAGCT-GTACTGAC_L002_R1_001.fastq.gz	2,514,015	fragments
65-65_CGGCTATG-TATAGCCT_L002_R1_001.fastq.gz	2,514,657	fragments
65-65_CGGCTATG-TATAGCCT_L001_R1_001.fastq.gz	2,517,130	fragments
123-124_GAGATTCC-CCTATCCT_L005_R1_001.fastq.gz	2,517,131	fragments
123-124_GAGATTCC-CCTATCCT_L006_R1_001.fastq.gz	2,519,791	fragments
56-56_CTGAAGCT-GTACTGAC_L001_R1_001.fastq.gz	2,520,431	fragments
65-65_CGGCTATG-TATAGCCT_L004_R1_001.fastq.gz	2,521,133	fragments
56-56_CTGAAGCT-GTACTGAC_L004_R1_001.fastq.gz	2,521,721	fragments
48-48_GAATTCGT-GTACTGAC_L003_R1_001.fastq.gz	2,530,722	fragments
48-48_GAATTCGT-GTACTGAC_L002_R1_001.fastq.gz	2,534,434	fragments
48-48_GAATTCGT-GTACTGAC_L001_R1_001.fastq.gz	2,537,947	fragments
48-48_GAATTCGT-GTACTGAC_L004_R1_001.fastq.gz	2,541,207	fragments
158-147_TAATGCGC-TAATCTTA_L007_R1_001.fastq.gz	2,548,584	fragments
158-147_TAATGCGC-TAATCTTA_L006_R1_001.fastq.gz	2,552,631	fragments
158-147_TAATGCGC-TAATCTTA_L008_R1_001.fastq.gz	2,552,941	fragments
158-147_TAATGCGC-TAATCTTA_L005_R1_001.fastq.gz	2,556,571	fragments
58-58_TAATGCGC-ATAGAGGC_L003_R1_001.fastq.gz	2,574,650	fragments
58-58_TAATGCGC-ATAGAGGC_L002_R1_001.fastq.gz	2,582,924	fragments
151-D100-E7-LV_CTGAAGCT-CAGGACGT_L007_R1_001.fastq.gz	2,586,270	fragments
58-58_TAATGCGC-ATAGAGGC_L004_R1_001.fastq.gz	2,586,792	fragments
58-58_TAATGCGC-ATAGAGGC_L001_R1_001.fastq.gz	2,587,004	fragments
151-D100-E7-LV_CTGAAGCT-CAGGACGT_L006_R1_001.fastq.gz	2,588,890	fragments
181-D100-C1-LV_TCTCGCGC-AGGCGAAG_L007_R1_001.fastq.gz	2,590,343	fragments
181-D100-C1-LV_TCTCGCGC-AGGCGAAG_L008_R1_001.fastq.gz	2,591,600	fragments
181-D100-C1-LV_TCTCGCGC-AGGCGAAG_L006_R1_001.fastq.gz	2,593,790	fragments
151-D100-E7-LV_CTGAAGCT-CAGGACGT_L008_R1_001.fastq.gz	2,596,140	fragments
151-D100-E7-LV_CTGAAGCT-CAGGACGT_L005_R1_001.fastq.gz	2,598,423	fragments
181-D100-C1-LV_TCTCGCGC-AGGCGAAG_L005_R1_001.fastq.gz	2,599,252	fragments
45-45_GAATTCGT-AGGCGAAG_L003_R1_001.fastq.gz	2,600,896	fragments
83-83_TCTCGCGC-CCTATCCT_L003_R1_001.fastq.gz	2,610,049	fragments
45-45_GAATTCGT-AGGCGAAG_L002_R1_001.fastq.gz	2,611,999	fragments
45-45_GAATTCGT-AGGCGAAG_L001_R1_001.fastq.gz	2,616,304	fragments
83-83_TCTCGCGC-CCTATCCT_L002_R1_001.fastq.gz	2,618,873	fragments
45-45_GAATTCGT-AGGCGAAG_L004_R1_001.fastq.gz	2,618,879	fragments
83-83_TCTCGCGC-CCTATCCT_L001_R1_001.fastq.gz	2,620,555	fragments
83-83_TCTCGCGC-CCTATCCT_L004_R1_001.fastq.gz	2,624,527	fragments
148-D50-C55-LV_CTGAAGCT-GGCTCTGA_L007_R1_001.fastq.gz	2,626,837	fragments
106-107_TCCGGAGA-ATAGAGGC_L008_R1_001.fastq.gz	2,627,294	fragments
131-132_ATTCAGAA-CCTATCCT_L008_R1_001.fastq.gz	2,627,373	fragments
148-D50-C55-LV_CTGAAGCT-GGCTCTGA_L008_R1_001.fastq.gz	2,630,839	fragments
131-132_ATTCAGAA-CCTATCCT_L007_R1_001.fastq.gz	2,631,151	fragments
106-107_TCCGGAGA-ATAGAGGC_L007_R1_001.fastq.gz	2,632,455	fragments
148-D50-C55-LV_CTGAAGCT-GGCTCTGA_L006_R1_001.fastq.gz	2,632,497	fragments
131-132_ATTCAGAA-CCTATCCT_L006_R1_001.fastq.gz	2,633,534	fragments
148-D50-C55-LV_CTGAAGCT-GGCTCTGA_L005_R1_001.fastq.gz	2,635,060	fragments
157-146_TAATGCGC-AGGCGAAG_L007_R1_001.fastq.gz	2,635,449	fragments
131-132_ATTCAGAA-CCTATCCT_L005_R1_001.fastq.gz	2,635,476	fragments
106-107_TCCGGAGA-ATAGAGGC_L005_R1_001.fastq.gz	2,637,800	fragments
106-107_TCCGGAGA-ATAGAGGC_L006_R1_001.fastq.gz	2,638,914	fragments
157-146_TAATGCGC-AGGCGAAG_L008_R1_001.fastq.gz	2,639,852	fragments
157-146_TAATGCGC-AGGCGAAG_L006_R1_001.fastq.gz	2,642,356	fragments
157-146_TAATGCGC-AGGCGAAG_L005_R1_001.fastq.gz	2,649,379	fragments
166-155_CGGCTATG-TAATCTTA_L008_R1_001.fastq.gz	2,674,529	fragments
43-43_GAATTCGT-CCTATCCT_L003_R1_001.fastq.gz	2,677,423	fragments
166-155_CGGCTATG-TAATCTTA_L007_R1_001.fastq.gz	2,678,199	fragments
166-155_CGGCTATG-TAATCTTA_L006_R1_001.fastq.gz	2,680,079	fragments
166-155_CGGCTATG-TAATCTTA_L005_R1_001.fastq.gz	2,682,069	fragments
43-43_GAATTCGT-CCTATCCT_L002_R1_001.fastq.gz	2,683,194	fragments
43-43_GAATTCGT-CCTATCCT_L001_R1_001.fastq.gz	2,685,195	fragments
43-43_GAATTCGT-CCTATCCT_L004_R1_001.fastq.gz	2,691,056	fragments
144-145_GAATTCGT-GTACTGAC_L007_R1_001.fastq.gz	2,706,600	fragments
144-145_GAATTCGT-GTACTGAC_L008_R1_001.fastq.gz	2,707,366	fragments
68-68_CGGCTATG-GGCTCTGA_L003_R1_001.fastq.gz	2,709,928	fragments
112-113_TCCGGAGA-GTACTGAC_L008_R1_001.fastq.gz	2,710,846	fragments
112-113_TCCGGAGA-GTACTGAC_L007_R1_001.fastq.gz	2,711,620	fragments
169-158_TCCGCGAA-TATAGCCT_L007_R1_001.fastq.gz	2,713,278	fragments
144-145_GAATTCGT-GTACTGAC_L006_R1_001.fastq.gz	2,713,579	fragments
68-68_CGGCTATG-GGCTCTGA_L001_R1_001.fastq.gz	2,714,586	fragments
68-68_CGGCTATG-GGCTCTGA_L002_R1_001.fastq.gz	2,715,759	fragments
68-68_CGGCTATG-GGCTCTGA_L004_R1_001.fastq.gz	2,716,248	fragments
169-158_TCCGCGAA-TATAGCCT_L008_R1_001.fastq.gz	2,716,625	fragments
169-158_TCCGCGAA-TATAGCCT_L006_R1_001.fastq.gz	2,718,695	fragments
144-145_GAATTCGT-GTACTGAC_L005_R1_001.fastq.gz	2,718,989	fragments
169-158_TCCGCGAA-TATAGCCT_L005_R1_001.fastq.gz	2,721,343	fragments
112-113_TCCGGAGA-GTACTGAC_L006_R1_001.fastq.gz	2,722,003	fragments
112-113_TCCGGAGA-GTACTGAC_L005_R1_001.fastq.gz	2,722,895	fragments
101-102_ATTACTCG-AGGCGAAG_L007_R1_001.fastq.gz	2,744,011	fragments
130-131_ATTCAGAA-ATAGAGGC_L007_R1_001.fastq.gz	2,746,057	fragments
130-131_ATTCAGAA-ATAGAGGC_L008_R1_001.fastq.gz	2,747,160	fragments
101-102_ATTACTCG-AGGCGAAG_L008_R1_001.fastq.gz	2,749,815	fragments
130-131_ATTCAGAA-ATAGAGGC_L006_R1_001.fastq.gz	2,753,265	fragments
101-102_ATTACTCG-AGGCGAAG_L006_R1_001.fastq.gz	2,753,856	fragments
130-131_ATTCAGAA-ATAGAGGC_L005_R1_001.fastq.gz	2,754,784	fragments
132-133_ATTCAGAA-GGCTCTGA_L008_R1_001.fastq.gz	2,756,237	fragments
101-102_ATTACTCG-AGGCGAAG_L005_R1_001.fastq.gz	2,756,425	fragments
132-133_ATTCAGAA-GGCTCTGA_L007_R1_001.fastq.gz	2,764,084	fragments
132-133_ATTCAGAA-GGCTCTGA_L005_R1_001.fastq.gz	2,767,324	fragments
132-133_ATTCAGAA-GGCTCTGA_L006_R1_001.fastq.gz	2,768,474	fragments
100-101_ATTACTCG-GGCTCTGA_L007_R1_001.fastq.gz	2,775,213	fragments
100-101_ATTACTCG-GGCTCTGA_L008_R1_001.fastq.gz	2,776,617	fragments
100-101_ATTACTCG-GGCTCTGA_L006_R1_001.fastq.gz	2,779,306	fragments
100-101_ATTACTCG-GGCTCTGA_L005_R1_001.fastq.gz	2,787,118	fragments
160-149_TAATGCGC-GTACTGAC_L007_R1_001.fastq.gz	2,859,134	fragments
160-149_TAATGCGC-GTACTGAC_L008_R1_001.fastq.gz	2,860,844	fragments
160-149_TAATGCGC-GTACTGAC_L006_R1_001.fastq.gz	2,867,163	fragments
160-149_TAATGCGC-GTACTGAC_L005_R1_001.fastq.gz	2,869,520	fragments
47-47_GAATTCGT-CAGGACGT_L003_R1_001.fastq.gz	2,874,115	fragments
47-47_GAATTCGT-CAGGACGT_L002_R1_001.fastq.gz	2,880,036	fragments
174-163_TCCGCGAA-TAATCTTA_L007_R1_001.fastq.gz	2,880,494	fragments
174-163_TCCGCGAA-TAATCTTA_L008_R1_001.fastq.gz	2,881,116	fragments
174-163_TCCGCGAA-TAATCTTA_L006_R1_001.fastq.gz	2,883,706	fragments
47-47_GAATTCGT-CAGGACGT_L001_R1_001.fastq.gz	2,886,070	fragments
47-47_GAATTCGT-CAGGACGT_L004_R1_001.fastq.gz	2,886,294	fragments
174-163_TCCGCGAA-TAATCTTA_L005_R1_001.fastq.gz	2,886,754	fragments
35-35_ATTCAGAA-CCTATCCT_L003_R1_001.fastq.gz	2,887,563	fragments
105-106_TCCGGAGA-TATAGCCT_L008_R1_001.fastq.gz	2,888,092	fragments
105-106_TCCGGAGA-TATAGCCT_L007_R1_001.fastq.gz	2,888,379	fragments
142-143_GAATTCGT-TAATCTTA_L008_R1_001.fastq.gz	2,889,790	fragments
35-35_ATTCAGAA-CCTATCCT_L002_R1_001.fastq.gz	2,892,836	fragments
105-106_TCCGGAGA-TATAGCCT_L006_R1_001.fastq.gz	2,893,314	fragments
35-35_ATTCAGAA-CCTATCCT_L001_R1_001.fastq.gz	2,895,985	fragments
105-106_TCCGGAGA-TATAGCCT_L005_R1_001.fastq.gz	2,897,329	fragments
142-143_GAATTCGT-TAATCTTA_L007_R1_001.fastq.gz	2,897,355	fragments
35-35_ATTCAGAA-CCTATCCT_L004_R1_001.fastq.gz	2,898,363	fragments
142-143_GAATTCGT-TAATCTTA_L005_R1_001.fastq.gz	2,900,943	fragments
142-143_GAATTCGT-TAATCTTA_L006_R1_001.fastq.gz	2,901,308	fragments
182-D100-C2-LV_TCTCGCGC-TAATCTTA_L007_R1_001.fastq.gz	2,938,625	fragments
182-D100-C2-LV_TCTCGCGC-TAATCTTA_L008_R1_001.fastq.gz	2,939,734	fragments
182-D100-C2-LV_TCTCGCGC-TAATCTTA_L006_R1_001.fastq.gz	2,943,407	fragments
182-D100-C2-LV_TCTCGCGC-TAATCTTA_L005_R1_001.fastq.gz	2,944,919	fragments
143-144_GAATTCGT-CAGGACGT_L007_R1_001.fastq.gz	2,956,644	fragments
143-144_GAATTCGT-CAGGACGT_L008_R1_001.fastq.gz	2,956,714	fragments
145-D50-E5-LV_CTGAAGCT-TATAGCCT_L007_R1_001.fastq.gz	2,961,902	fragments
143-144_GAATTCGT-CAGGACGT_L006_R1_001.fastq.gz	2,962,682	fragments
143-144_GAATTCGT-CAGGACGT_L005_R1_001.fastq.gz	2,963,918	fragments
97-98_ATTACTCG-TATAGCCT_L007_R1_001.fastq.gz	2,964,352	fragments
162-151_CGGCTATG-ATAGAGGC_L007_R1_001.fastq.gz	2,964,518	fragments
145-D50-E5-LV_CTGAAGCT-TATAGCCT_L008_R1_001.fastq.gz	2,966,208	fragments
145-D50-E5-LV_CTGAAGCT-TATAGCCT_L006_R1_001.fastq.gz	2,968,587	fragments
97-98_ATTACTCG-TATAGCCT_L008_R1_001.fastq.gz	2,969,039	fragments
162-151_CGGCTATG-ATAGAGGC_L008_R1_001.fastq.gz	2,970,806	fragments
162-151_CGGCTATG-ATAGAGGC_L006_R1_001.fastq.gz	2,972,420	fragments
97-98_ATTACTCG-TATAGCCT_L006_R1_001.fastq.gz	2,973,564	fragments
145-D50-E5-LV_CTGAAGCT-TATAGCCT_L005_R1_001.fastq.gz	2,975,010	fragments
97-98_ATTACTCG-TATAGCCT_L005_R1_001.fastq.gz	2,978,056	fragments
162-151_CGGCTATG-ATAGAGGC_L005_R1_001.fastq.gz	2,978,667	fragments
150-D50-C57-LV_CTGAAGCT-TAATCTTA_L007_R1_001.fastq.gz	2,993,935	fragments
150-D50-C57-LV_CTGAAGCT-TAATCTTA_L006_R1_001.fastq.gz	2,998,371	fragments
104-105_ATTACTCG-GTACTGAC_L007_R1_001.fastq.gz	3,000,979	fragments
124-125_GAGATTCC-GGCTCTGA_L008_R1_001.fastq.gz	3,000,982	fragments
104-105_ATTACTCG-GTACTGAC_L008_R1_001.fastq.gz	3,001,726	fragments
124-125_GAGATTCC-GGCTCTGA_L007_R1_001.fastq.gz	3,003,170	fragments
150-D50-C57-LV_CTGAAGCT-TAATCTTA_L008_R1_001.fastq.gz	3,004,331	fragments
104-105_ATTACTCG-GTACTGAC_L006_R1_001.fastq.gz	3,009,579	fragments
150-D50-C57-LV_CTGAAGCT-TAATCTTA_L005_R1_001.fastq.gz	3,010,444	fragments
124-125_GAGATTCC-GGCTCTGA_L005_R1_001.fastq.gz	3,010,721	fragments
124-125_GAGATTCC-GGCTCTGA_L006_R1_001.fastq.gz	3,011,382	fragments
104-105_ATTACTCG-GTACTGAC_L005_R1_001.fastq.gz	3,012,333	fragments
129-130_ATTCAGAA-TATAGCCT_L008_R1_001.fastq.gz	3,037,752	fragments
129-130_ATTCAGAA-TATAGCCT_L007_R1_001.fastq.gz	3,038,049	fragments
103-104_ATTACTCG-CAGGACGT_L007_R1_001.fastq.gz	3,041,777	fragments
103-104_ATTACTCG-CAGGACGT_L006_R1_001.fastq.gz	3,043,906	fragments
103-104_ATTACTCG-CAGGACGT_L008_R1_001.fastq.gz	3,046,126	fragments
103-104_ATTACTCG-CAGGACGT_L005_R1_001.fastq.gz	3,047,179	fragments
129-130_ATTCAGAA-TATAGCCT_L006_R1_001.fastq.gz	3,047,980	fragments
129-130_ATTCAGAA-TATAGCCT_L005_R1_001.fastq.gz	3,049,743	fragments
102-103_ATTACTCG-TAATCTTA_L007_R1_001.fastq.gz	3,060,059	fragments
102-103_ATTACTCG-TAATCTTA_L008_R1_001.fastq.gz	3,062,815	fragments
5-5_ATTACTCG-AGGCGAAG_L003_R1_001.fastq.gz	3,063,272	fragments
102-103_ATTACTCG-TAATCTTA_L006_R1_001.fastq.gz	3,066,881	fragments
5-5_ATTACTCG-AGGCGAAG_L002_R1_001.fastq.gz	3,068,242	fragments
102-103_ATTACTCG-TAATCTTA_L005_R1_001.fastq.gz	3,070,440	fragments
5-5_ATTACTCG-AGGCGAAG_L001_R1_001.fastq.gz	3,073,571	fragments
5-5_ATTACTCG-AGGCGAAG_L004_R1_001.fastq.gz	3,074,766	fragments
133-134_ATTCAGAA-AGGCGAAG_L008_R1_001.fastq.gz	3,085,696	fragments
133-134_ATTCAGAA-AGGCGAAG_L007_R1_001.fastq.gz	3,090,349	fragments
133-134_ATTCAGAA-AGGCGAAG_L005_R1_001.fastq.gz	3,097,721	fragments
133-134_ATTCAGAA-AGGCGAAG_L006_R1_001.fastq.gz	3,100,562	fragments
171-160_TCCGCGAA-CCTATCCT_L007_R1_001.fastq.gz	3,122,863	fragments
159-148_TAATGCGC-CAGGACGT_L007_R1_001.fastq.gz	3,131,418	fragments
171-160_TCCGCGAA-CCTATCCT_L008_R1_001.fastq.gz	3,132,217	fragments
159-148_TAATGCGC-CAGGACGT_L008_R1_001.fastq.gz	3,134,675	fragments
171-160_TCCGCGAA-CCTATCCT_L006_R1_001.fastq.gz	3,135,061	fragments
159-148_TAATGCGC-CAGGACGT_L006_R1_001.fastq.gz	3,137,008	fragments
175-164_TCCGCGAA-CAGGACGT_L007_R1_001.fastq.gz	3,139,344	fragments
136-137_ATTCAGAA-GTACTGAC_L008_R1_001.fastq.gz	3,139,522	fragments
175-164_TCCGCGAA-CAGGACGT_L008_R1_001.fastq.gz	3,140,592	fragments
171-160_TCCGCGAA-CCTATCCT_L005_R1_001.fastq.gz	3,141,168	fragments
159-148_TAATGCGC-CAGGACGT_L005_R1_001.fastq.gz	3,141,404	fragments
136-137_ATTCAGAA-GTACTGAC_L007_R1_001.fastq.gz	3,141,851	fragments
136-137_ATTCAGAA-GTACTGAC_L006_R1_001.fastq.gz	3,147,409	fragments
175-164_TCCGCGAA-CAGGACGT_L006_R1_001.fastq.gz	3,148,203	fragments
175-164_TCCGCGAA-CAGGACGT_L005_R1_001.fastq.gz	3,151,208	fragments
136-137_ATTCAGAA-GTACTGAC_L005_R1_001.fastq.gz	3,151,409	fragments
153-D100-E12-LV_TAATGCGC-TATAGCCT_L007_R1_001.fastq.gz	3,167,753	fragments
153-D100-E12-LV_TAATGCGC-TATAGCCT_L008_R1_001.fastq.gz	3,173,027	fragments
153-D100-E12-LV_TAATGCGC-TATAGCCT_L006_R1_001.fastq.gz	3,177,043	fragments
153-D100-E12-LV_TAATGCGC-TATAGCCT_L005_R1_001.fastq.gz	3,184,972	fragments
152-D100-E9-LV_CTGAAGCT-GTACTGAC_L007_R1_001.fastq.gz	3,228,191	fragments
121-122_GAGATTCC-TATAGCCT_L007_R1_001.fastq.gz	3,234,081	fragments
121-122_GAGATTCC-TATAGCCT_L008_R1_001.fastq.gz	3,234,784	fragments
109-110_TCCGGAGA-AGGCGAAG_L008_R1_001.fastq.gz	3,236,341	fragments
152-D100-E9-LV_CTGAAGCT-GTACTGAC_L006_R1_001.fastq.gz	3,238,015	fragments
109-110_TCCGGAGA-AGGCGAAG_L007_R1_001.fastq.gz	3,241,643	fragments
152-D100-E9-LV_CTGAAGCT-GTACTGAC_L008_R1_001.fastq.gz	3,243,817	fragments
121-122_GAGATTCC-TATAGCCT_L006_R1_001.fastq.gz	3,246,601	fragments
121-122_GAGATTCC-TATAGCCT_L005_R1_001.fastq.gz	3,246,947	fragments
152-D100-E9-LV_CTGAAGCT-GTACTGAC_L005_R1_001.fastq.gz	3,247,995	fragments
109-110_TCCGGAGA-AGGCGAAG_L006_R1_001.fastq.gz	3,249,995	fragments
109-110_TCCGGAGA-AGGCGAAG_L005_R1_001.fastq.gz	3,252,067	fragments
138-139_GAATTCGT-ATAGAGGC_L008_R1_001.fastq.gz	3,294,942	fragments
138-139_GAATTCGT-ATAGAGGC_L007_R1_001.fastq.gz	3,295,542	fragments
138-139_GAATTCGT-ATAGAGGC_L005_R1_001.fastq.gz	3,306,118	fragments
138-139_GAATTCGT-ATAGAGGC_L006_R1_001.fastq.gz	3,306,710	fragments
107-108_TCCGGAGA-CCTATCCT_L007_R1_001.fastq.gz	3,312,309	fragments
107-108_TCCGGAGA-CCTATCCT_L008_R1_001.fastq.gz	3,313,658	fragments
107-108_TCCGGAGA-CCTATCCT_L006_R1_001.fastq.gz	3,319,192	fragments
107-108_TCCGGAGA-CCTATCCT_L005_R1_001.fastq.gz	3,324,162	fragments
140-141_GAATTCGT-GGCTCTGA_L008_R1_001.fastq.gz	3,329,637	fragments
140-141_GAATTCGT-GGCTCTGA_L007_R1_001.fastq.gz	3,330,941	fragments
110-111_TCCGGAGA-TAATCTTA_L007_R1_001.fastq.gz	3,335,057	fragments
140-141_GAATTCGT-GGCTCTGA_L006_R1_001.fastq.gz	3,336,935	fragments
110-111_TCCGGAGA-TAATCTTA_L008_R1_001.fastq.gz	3,337,773	fragments
140-141_GAATTCGT-GGCTCTGA_L005_R1_001.fastq.gz	3,337,921	fragments
110-111_TCCGGAGA-TAATCTTA_L006_R1_001.fastq.gz	3,341,372	fragments
173-162_TCCGCGAA-AGGCGAAG_L007_R1_001.fastq.gz	3,343,698	fragments
173-162_TCCGCGAA-AGGCGAAG_L008_R1_001.fastq.gz	3,344,462	fragments
110-111_TCCGGAGA-TAATCTTA_L005_R1_001.fastq.gz	3,347,629	fragments
173-162_TCCGCGAA-AGGCGAAG_L006_R1_001.fastq.gz	3,348,751	fragments
173-162_TCCGCGAA-AGGCGAAG_L005_R1_001.fastq.gz	3,350,862	fragments
183-D100-C5-LV_TCTCGCGC-CAGGACGT_L008_R1_001.fastq.gz	3,379,387	fragments
183-D100-C5-LV_TCTCGCGC-CAGGACGT_L007_R1_001.fastq.gz	3,382,154	fragments
183-D100-C5-LV_TCTCGCGC-CAGGACGT_L006_R1_001.fastq.gz	3,386,283	fragments
183-D100-C5-LV_TCTCGCGC-CAGGACGT_L005_R1_001.fastq.gz	3,391,181	fragments
98-99_ATTACTCG-ATAGAGGC_L007_R1_001.fastq.gz	3,396,677	fragments
98-99_ATTACTCG-ATAGAGGC_L008_R1_001.fastq.gz	3,403,132	fragments
98-99_ATTACTCG-ATAGAGGC_L006_R1_001.fastq.gz	3,404,690	fragments
98-99_ATTACTCG-ATAGAGGC_L005_R1_001.fastq.gz	3,410,495	fragments
167-156_CGGCTATG-CAGGACGT_L007_R1_001.fastq.gz	3,419,245	fragments
167-156_CGGCTATG-CAGGACGT_L008_R1_001.fastq.gz	3,420,059	fragments
167-156_CGGCTATG-CAGGACGT_L006_R1_001.fastq.gz	3,420,555	fragments
167-156_CGGCTATG-CAGGACGT_L005_R1_001.fastq.gz	3,427,484	fragments
146-D50-E6-LV_CTGAAGCT-ATAGAGGC_L007_R1_001.fastq.gz	3,460,428	fragments
146-D50-E6-LV_CTGAAGCT-ATAGAGGC_L008_R1_001.fastq.gz	3,466,439	fragments
146-D50-E6-LV_CTGAAGCT-ATAGAGGC_L006_R1_001.fastq.gz	3,469,698	fragments
146-D50-E6-LV_CTGAAGCT-ATAGAGGC_L005_R1_001.fastq.gz	3,480,008	fragments
99-100_ATTACTCG-CCTATCCT_L007_R1_001.fastq.gz	3,501,200	fragments
139-140_GAATTCGT-CCTATCCT_L008_R1_001.fastq.gz	3,502,368	fragments
139-140_GAATTCGT-CCTATCCT_L007_R1_001.fastq.gz	3,506,680	fragments
139-140_GAATTCGT-CCTATCCT_L006_R1_001.fastq.gz	3,509,575	fragments
99-100_ATTACTCG-CCTATCCT_L008_R1_001.fastq.gz	3,510,722	fragments
139-140_GAATTCGT-CCTATCCT_L005_R1_001.fastq.gz	3,511,289	fragments
99-100_ATTACTCG-CCTATCCT_L006_R1_001.fastq.gz	3,514,779	fragments
99-100_ATTACTCG-CCTATCCT_L005_R1_001.fastq.gz	3,523,021	fragments
141-142_GAATTCGT-AGGCGAAG_L007_R1_001.fastq.gz	3,592,318	fragments
141-142_GAATTCGT-AGGCGAAG_L008_R1_001.fastq.gz	3,592,550	fragments
141-142_GAATTCGT-AGGCGAAG_L005_R1_001.fastq.gz	3,600,612	fragments
141-142_GAATTCGT-AGGCGAAG_L006_R1_001.fastq.gz	3,601,503	fragments
111-112_TCCGGAGA-CAGGACGT_L008_R1_001.fastq.gz	3,619,393	fragments
111-112_TCCGGAGA-CAGGACGT_L007_R1_001.fastq.gz	3,622,409	fragments
111-112_TCCGGAGA-CAGGACGT_L006_R1_001.fastq.gz	3,625,598	fragments
111-112_TCCGGAGA-CAGGACGT_L005_R1_001.fastq.gz	3,630,288	fragments
170-159_TCCGCGAA-ATAGAGGC_L007_R1_001.fastq.gz	3,759,148	fragments
170-159_TCCGCGAA-ATAGAGGC_L008_R1_001.fastq.gz	3,759,401	fragments
170-159_TCCGCGAA-ATAGAGGC_L005_R1_001.fastq.gz	3,769,064	fragments
170-159_TCCGCGAA-ATAGAGGC_L006_R1_001.fastq.gz	3,769,137	fragments
179-168_TCTCGCGC-CCTATCCT_L007_R1_001.fastq.gz	3,849,882	fragments
179-168_TCTCGCGC-CCTATCCT_L008_R1_001.fastq.gz	3,851,587	fragments
128-129_GAGATTCC-GTACTGAC_L008_R1_001.fastq.gz	3,854,530	fragments
128-129_GAGATTCC-GTACTGAC_L007_R1_001.fastq.gz	3,857,463	fragments
179-168_TCTCGCGC-CCTATCCT_L006_R1_001.fastq.gz	3,860,092	fragments
179-168_TCTCGCGC-CCTATCCT_L005_R1_001.fastq.gz	3,866,719	fragments
128-129_GAGATTCC-GTACTGAC_L006_R1_001.fastq.gz	3,871,148	fragments
128-129_GAGATTCC-GTACTGAC_L005_R1_001.fastq.gz	3,871,814	fragments
177-166_TCTCGCGC-TATAGCCT_L007_R1_001.fastq.gz	3,953,001	fragments
177-166_TCTCGCGC-TATAGCCT_L008_R1_001.fastq.gz	3,955,887	fragments
176-165_TCCGCGAA-GTACTGAC_L007_R1_001.fastq.gz	3,955,992	fragments
176-165_TCCGCGAA-GTACTGAC_L008_R1_001.fastq.gz	3,960,665	fragments
177-166_TCTCGCGC-TATAGCCT_L006_R1_001.fastq.gz	3,963,283	fragments
177-166_TCTCGCGC-TATAGCCT_L005_R1_001.fastq.gz	3,965,698	fragments
176-165_TCCGCGAA-GTACTGAC_L006_R1_001.fastq.gz	3,966,123	fragments
176-165_TCCGCGAA-GTACTGAC_L005_R1_001.fastq.gz	3,971,045	fragments
134-135_ATTCAGAA-TAATCTTA_L007_R1_001.fastq.gz	4,066,039	fragments
134-135_ATTCAGAA-TAATCTTA_L008_R1_001.fastq.gz	4,066,949	fragments
134-135_ATTCAGAA-TAATCTTA_L006_R1_001.fastq.gz	4,069,267	fragments
134-135_ATTCAGAA-TAATCTTA_L005_R1_001.fastq.gz	4,078,366	fragments
178-167_TCTCGCGC-ATAGAGGC_L007_R1_001.fastq.gz	4,157,977	fragments
178-167_TCTCGCGC-ATAGAGGC_L008_R1_001.fastq.gz	4,162,138	fragments
178-167_TCTCGCGC-ATAGAGGC_L006_R1_001.fastq.gz	4,168,124	fragments
178-167_TCTCGCGC-ATAGAGGC_L005_R1_001.fastq.gz	4,175,114	fragments
168-157_CGGCTATG-GTACTGAC_L007_R1_001.fastq.gz	4,339,719	fragments
168-157_CGGCTATG-GTACTGAC_L006_R1_001.fastq.gz	4,343,442	fragments
168-157_CGGCTATG-GTACTGAC_L008_R1_001.fastq.gz	4,343,987	fragments
168-157_CGGCTATG-GTACTGAC_L005_R1_001.fastq.gz	4,352,524	fragments
